Topic_Modeling
…
1.6 Filtering terms by Topics

tidy(DTM) %>% 
  filter(document == 3) %>% 
  arrange(desc(count))

# A tibble: 847 x 3
   document term      count
   <chr>    <chr>     <dbl>
 1 3        percent     117
 2 3        billion      55
 3 3        july         52
 4 3        million      45
 5 3        growth       37
 6 3        year         29
 7 3        last         24
 8 3        economic     21
 9 3        increased    20
10 3        august       18
# i 837 more rows
…
